…
    ## Warning: 1 parsing failure.
    ## row # A tibble: 1 x 4 col     row   col expected actual expected   <int> <int> <chr>    <chr>  actual 1     1    NA a double Total

    ## Warning: 1 parsing failure.
    ## row # A tibble: 1 x 4 col     row   col expected actual expected   <int> <int> <chr>    <chr>  actual 1     1    NA a double Total

    crimedatatidy1 <- crimedatatidy[-c(1), ] %>%
      arrange(State)

    crimedatatidy1

    ## # A tibble: 83 x 4
    ##    State      City        Violent_Crime_Rate Property_Crime_Rate
    ##    <chr>      <chr>                    <dbl>               <dbl>
    ##  1 Alabama    Mobile2                   611.                882 
    ##  2 Alaska     Anchorage                1071.                559.
    ##  3 Arizona    Chandler                  189.                297.
    ##  4 Arizona    Mesa                      419.                471.
    ##  5 Arizona    Phoenix                   594.                820.
    ##  6 Arizona    Tucson                    656.                692.
    ##  7 California Anaheim                   364.                422.
    ##  8 California Bakersfield               484.               1037.
    ##  9 California Chula Vista               266.                268.
    ## 10 California Fresno                    551.                850.
    ## # ... with 73 more rows
…
    imdbscore <- html_nodes(top50, ".ratings-imdb-rating strong")  
    imdbscore1 <- parse_number(html_text(imdbscore))
    imdbscore1

    ##  [1] 7.2 7.2 7.5 7.0 7.7 7.5 7.4 7.9 6.3 6.5 8.1 6.7 8.4 7.9 7.7 7.3 6.3
    ## [18] 7.7 6.6 6.7 6.8 7.5 8.0 5.2 6.2 4.6 7.6 5.9 6.0 6.5 6.5 6.8 8.0 7.5
    ## [35] 3.2 6.0 6.7 7.2 5.5 6.9 6.4 6.2 5.5 7.0 7.4 6.0 5.6 6.3 7.4 6.5

    top50table <- tibble(title1, gross2, metascore2, imdbscore1)
    top50table %>%
      rename("Title" = title1, "Gross" = gross2, "Metascore" = metascore2, "Imdb Score" = imdbscore1)

    ## # A tibble: 50 x 4
    ##    Title                                   Gross Metascore `Imdb Score`
    ##    <chr>                                   <dbl>     <dbl>        <dbl>
    ##  1 Star Wars: Episode VIII - The Last Jedi  620.        85          7.2
    ##  2 Beauty and the Beast                     504.        65          7.2
    ##  3 Wonder Woman                             413.        76          7.5
    ##  4 Jumanji: Welcome to the Jungle           405.        58          7  
    ##  5 Guardians of the Galaxy Vol. 2           390.        67          7.7
    ##  6 Spider-Man: Homecoming                   334.        73          7.5
    ##  7 It                                       327.        69          7.4
    ##  8 Thor: Ragnarok                           315.        74          7.9
    ##  9 Despicable Me 3                          265.        49          6.3
    ## 10 Justice League                           229.        45          6.5
    ## # ... with 40 more rows
…
